<?xml version="1.0" encoding="UTF-8" standalone="no"?>
<!DOCTYPE svg PUBLIC "-//W3C//DTD SVG 1.1//EN"
 "http://www.w3.org/Graphics/SVG/1.1/DTD/svg11.dtd">
<!-- Generated by graphviz version 2.40.1 (20161225.0304)
 -->
<!-- Title: org&#45;roam Pages: 1 -->
<svg width="666pt" height="838pt"
 viewBox="0.00 0.00 666.00 838.00" xmlns="http://www.w3.org/2000/svg" xmlns:xlink="http://www.w3.org/1999/xlink">
<g id="graph0" class="graph" transform="scale(1 1) rotate(0) translate(4 834)">
<title>org&#45;roam</title>
<!-- /home/shared/commonplace/20200719183641&#45;manchester.org -->
<g id="node1" class="node">
<title>/home/shared/commonplace/20200719183641&#45;manchester.org</title>
<g id="a_node1"><a xlink:href="org-protocol://roam-file?file=%2Fhome%2Fshared%2Fcommonplace%2F20200719183641-manchester.org" xlink:title="Manchester">
<path fill="#ffdab9" stroke="#c9c9c9" d="M302.5,-722C302.5,-722 226.5,-722 226.5,-722 220.5,-722 214.5,-716 214.5,-710 214.5,-710 214.5,-698 214.5,-698 214.5,-692 220.5,-686 226.5,-686 226.5,-686 302.5,-686 302.5,-686 308.5,-686 314.5,-692 314.5,-698 314.5,-698 314.5,-710 314.5,-710 314.5,-716 308.5,-722 302.5,-722"/>
<text text-anchor="middle" x="264.5" y="-700.3" font-family="sans" font-size="14.00" fill="#111111">Manchester</text>
</a>
</g>
</g>
<!-- /home/shared/commonplace/journal/2020&#45;12&#45;10.org -->
<g id="node11" class="node">
<title>/home/shared/commonplace/journal/2020&#45;12&#45;10.org</title>
<g id="a_node11"><a xlink:href="org-protocol://roam-file?file=%2Fhome%2Fshared%2Fcommonplace%2Fjournal%2F2020-12-10.org" xlink:title="2020&#45;12&#45;10">
<path fill="#ffdab9" stroke="#c9c9c9" d="M534,-587C534,-587 459,-587 459,-587 453,-587 447,-581 447,-575 447,-575 447,-563 447,-563 447,-557 453,-551 459,-551 459,-551 534,-551 534,-551 540,-551 546,-557 546,-563 546,-563 546,-575 546,-575 546,-581 540,-587 534,-587"/>
<text text-anchor="middle" x="496.5" y="-565.3" font-family="sans" font-size="14.00" fill="#111111">2020&#45;12&#45;10</text>
</a>
</g>
</g>
<!-- /home/shared/commonplace/20200719183641&#45;manchester.org&#45;&gt;/home/shared/commonplace/journal/2020&#45;12&#45;10.org -->
<g id="edge4" class="edge">
<title>/home/shared/commonplace/20200719183641&#45;manchester.org&#45;&gt;/home/shared/commonplace/journal/2020&#45;12&#45;10.org</title>
<path fill="none" stroke="#000000" d="M324.7943,-702.5031C352.6783,-699.4893 385.2446,-692.4984 411,-677 447.2684,-655.1755 474.257,-611.9016 487.4602,-587.2718"/>
<polygon fill="#000000" stroke="#000000" points="324.3851,-699.026 314.7545,-703.4419 325.0369,-705.9956 324.3851,-699.026"/>
</g>
<!-- /home/shared/commonplace/20200319214313&#45;spanish_civil_war.org -->
<g id="node2" class="node">
<title>/home/shared/commonplace/20200319214313&#45;spanish_civil_war.org</title>
<g id="a_node2"><a xlink:href="org-protocol://roam-file?file=%2Fhome%2Fshared%2Fcommonplace%2F20200319214313-spanish_civil_war.org" xlink:title="Spanish Civil War">
<path fill="#ffdab9" stroke="#c9c9c9" d="M322.5,-668C322.5,-668 206.5,-668 206.5,-668 200.5,-668 194.5,-662 194.5,-656 194.5,-656 194.5,-644 194.5,-644 194.5,-638 200.5,-632 206.5,-632 206.5,-632 322.5,-632 322.5,-632 328.5,-632 334.5,-638 334.5,-644 334.5,-644 334.5,-656 334.5,-656 334.5,-662 328.5,-668 322.5,-668"/>
<text text-anchor="middle" x="264.5" y="-646.3" font-family="sans" font-size="14.00" fill="#111111">Spanish Civil War</text>
</a>
</g>
</g>
<!-- /home/shared/commonplace/20200319214313&#45;spanish_civil_war.org&#45;&gt;/home/shared/commonplace/journal/2020&#45;12&#45;10.org -->
<g id="edge5" class="edge">
<title>/home/shared/commonplace/20200319214313&#45;spanish_civil_war.org&#45;&gt;/home/shared/commonplace/journal/2020&#45;12&#45;10.org</title>
<path fill="none" stroke="#000000" d="M344.558,-640.9106C366.566,-636.9009 390.1129,-631.1684 411,-623 433.5638,-614.1759 456.6463,-599.1736 473.1315,-587.218"/>
<polygon fill="#000000" stroke="#000000" points="343.8287,-637.4847 334.5696,-642.6343 345.0191,-644.3827 343.8287,-637.4847"/>
</g>
<!-- /home/shared/commonplace/20200822150602&#45;exit_to_community.org -->
<g id="node3" class="node">
<title>/home/shared/commonplace/20200822150602&#45;exit_to_community.org</title>
<g id="a_node3"><a xlink:href="org-protocol://roam-file?file=%2Fhome%2Fshared%2Fcommonplace%2F20200822150602-exit_to_community.org" xlink:title="Exit to community">
<path fill="#ffdab9" stroke="#c9c9c9" d="M325.5,-398C325.5,-398 203.5,-398 203.5,-398 197.5,-398 191.5,-392 191.5,-386 191.5,-386 191.5,-374 191.5,-374 191.5,-368 197.5,-362 203.5,-362 203.5,-362 325.5,-362 325.5,-362 331.5,-362 337.5,-368 337.5,-374 337.5,-374 337.5,-386 337.5,-386 337.5,-392 331.5,-398 325.5,-398"/>
<text text-anchor="middle" x="264.5" y="-376.3" font-family="sans" font-size="14.00" fill="#111111">Exit to community</text>
</a>
</g>
</g>
<!-- /home/shared/commonplace/journal/2020&#45;12&#45;13.org -->
<g id="node19" class="node">
<title>/home/shared/commonplace/journal/2020&#45;12&#45;13.org</title>
<g id="a_node19"><a xlink:href="org-protocol://roam-file?file=%2Fhome%2Fshared%2Fcommonplace%2Fjournal%2F2020-12-13.org" xlink:title="2020&#45;12&#45;13">
<path fill="#ffdab9" stroke="#c9c9c9" d="M534,-236C534,-236 459,-236 459,-236 453,-236 447,-230 447,-224 447,-224 447,-212 447,-212 447,-206 453,-200 459,-200 459,-200 534,-200 534,-200 540,-200 546,-206 546,-212 546,-212 546,-224 546,-224 546,-230 540,-236 534,-236"/>
<text text-anchor="middle" x="496.5" y="-214.3" font-family="sans" font-size="14.00" fill="#111111">2020&#45;12&#45;13</text>
</a>
</g>
</g>
<!-- /home/shared/commonplace/20200822150602&#45;exit_to_community.org&#45;&gt;/home/shared/commonplace/journal/2020&#45;12&#45;13.org -->
<g id="edge17" class="edge">
<title>/home/shared/commonplace/20200822150602&#45;exit_to_community.org&#45;&gt;/home/shared/commonplace/journal/2020&#45;12&#45;13.org</title>
<path fill="none" stroke="#000000" d="M347.5807,-376.6672C369.6134,-372.7046 392.4171,-365.5567 411,-353 453.7555,-324.1095 479.5168,-265.9349 490.4082,-236.2808"/>
<polygon fill="#000000" stroke="#000000" points="346.8529,-373.239 337.5297,-378.2717 347.9565,-380.1514 346.8529,-373.239"/>
</g>
<!-- /home/shared/commonplace/20200404193304&#45;wordpress.org -->
<g id="node4" class="node">
<title>/home/shared/commonplace/20200404193304&#45;wordpress.org</title>
<g id="a_node4"><a xlink:href="org-protocol://roam-file?file=%2Fhome%2Fshared%2Fcommonplace%2F20200404193304-wordpress.org" xlink:title="WordPress">
<path fill="#ffdab9" stroke="#c9c9c9" d="M298.5,-614C298.5,-614 230.5,-614 230.5,-614 224.5,-614 218.5,-608 218.5,-602 218.5,-602 218.5,-590 218.5,-590 218.5,-584 224.5,-578 230.5,-578 230.5,-578 298.5,-578 298.5,-578 304.5,-578 310.5,-584 310.5,-590 310.5,-590 310.5,-602 310.5,-602 310.5,-608 304.5,-614 298.5,-614"/>
<text text-anchor="middle" x="264.5" y="-592.3" font-family="sans" font-size="14.00" fill="#111111">WordPress</text>
</a>
</g>
</g>
<!-- /home/shared/commonplace/20200404193304&#45;wordpress.org&#45;&gt;/home/shared/commonplace/journal/2020&#45;12&#45;10.org -->
<g id="edge1" class="edge">
<title>/home/shared/commonplace/20200404193304&#45;wordpress.org&#45;&gt;/home/shared/commonplace/journal/2020&#45;12&#45;10.org</title>
<path fill="none" stroke="#000000" d="M320.6316,-589.4674C359.1549,-584.9841 409.8135,-579.0885 446.8625,-574.7768"/>
<polygon fill="#000000" stroke="#000000" points="320.1414,-586.0008 310.6131,-590.6334 320.9507,-592.9538 320.1414,-586.0008"/>
</g>
<!-- /home/shared/commonplace/20200508100509&#45;invidious.org -->
<g id="node5" class="node">
<title>/home/shared/commonplace/20200508100509&#45;invidious.org</title>
<g id="a_node5"><a xlink:href="org-protocol://roam-file?file=%2Fhome%2Fshared%2Fcommonplace%2F20200508100509-invidious.org" xlink:title="Invidious">
<path fill="#ffdab9" stroke="#c9c9c9" d="M292.5,-344C292.5,-344 236.5,-344 236.5,-344 230.5,-344 224.5,-338 224.5,-332 224.5,-332 224.5,-320 224.5,-320 224.5,-314 230.5,-308 236.5,-308 236.5,-308 292.5,-308 292.5,-308 298.5,-308 304.5,-314 304.5,-320 304.5,-320 304.5,-332 304.5,-332 304.5,-338 298.5,-344 292.5,-344"/>
<text text-anchor="middle" x="264.5" y="-322.3" font-family="sans" font-size="14.00" fill="#111111">Invidious</text>
</a>
</g>
</g>
<!-- /home/shared/commonplace/20200508100509&#45;invidious.org&#45;&gt;/home/shared/commonplace/journal/2020&#45;12&#45;13.org -->
<g id="edge10" class="edge">
<title>/home/shared/commonplace/20200508100509&#45;invidious.org&#45;&gt;/home/shared/commonplace/journal/2020&#45;12&#45;13.org</title>
<path fill="none" stroke="#000000" d="M314.7564,-323.8387C344.1438,-320.8837 381.2,-314.1493 411,-299 440.7103,-283.8963 467.249,-255.188 482.6101,-236.3228"/>
<polygon fill="#000000" stroke="#000000" points="314.356,-320.3604 304.706,-324.7339 314.9771,-327.3328 314.356,-320.3604"/>
</g>
<!-- /home/shared/commonplace/cooperatives.org -->
<g id="node6" class="node">
<title>/home/shared/commonplace/cooperatives.org</title>
<g id="a_node6"><a xlink:href="org-protocol://roam-file?file=%2Fhome%2Fshared%2Fcommonplace%2Fcooperatives.org" xlink:title="Co&#45;ops">
<path fill="#ffdab9" stroke="#c9c9c9" d="M285.5,-560C285.5,-560 243.5,-560 243.5,-560 237.5,-560 231.5,-554 231.5,-548 231.5,-548 231.5,-536 231.5,-536 231.5,-530 237.5,-524 243.5,-524 243.5,-524 285.5,-524 285.5,-524 291.5,-524 297.5,-530 297.5,-536 297.5,-536 297.5,-548 297.5,-548 297.5,-554 291.5,-560 285.5,-560"/>
<text text-anchor="middle" x="264.5" y="-538.3" font-family="sans" font-size="14.00" fill="#111111">Co&#45;ops</text>
</a>
</g>
</g>
<!-- /home/shared/commonplace/cooperatives.org&#45;&gt;/home/shared/commonplace/journal/2020&#45;12&#45;10.org -->
<g id="edge2" class="edge">
<title>/home/shared/commonplace/cooperatives.org&#45;&gt;/home/shared/commonplace/journal/2020&#45;12&#45;10.org</title>
<path fill="none" stroke="#000000" d="M307.8287,-547.0426C347.2298,-551.628 405.3607,-558.3933 446.6701,-563.2008"/>
<polygon fill="#000000" stroke="#000000" points="308.0775,-543.548 297.7399,-545.8684 307.2683,-550.5011 308.0775,-543.548"/>
</g>
<!-- /home/shared/commonplace/20200312231237&#45;org_mode.org -->
<g id="node7" class="node">
<title>/home/shared/commonplace/20200312231237&#45;org_mode.org</title>
<g id="a_node7"><a xlink:href="org-protocol://roam-file?file=%2Fhome%2Fshared%2Fcommonplace%2F20200312231237-org_mode.org" xlink:title="org&#45;mode">
<path fill="#ffdab9" stroke="#c9c9c9" d="M296,-290C296,-290 233,-290 233,-290 227,-290 221,-284 221,-278 221,-278 221,-266 221,-266 221,-260 227,-254 233,-254 233,-254 296,-254 296,-254 302,-254 308,-260 308,-266 308,-266 308,-278 308,-278 308,-284 302,-290 296,-290"/>
<text text-anchor="middle" x="264.5" y="-268.3" font-family="sans" font-size="14.00" fill="#111111">org&#45;mode</text>
</a>
</g>
</g>
<!-- /home/shared/commonplace/20200312231237&#45;org_mode.org&#45;&gt;/home/shared/commonplace/journal/2020&#45;12&#45;13.org -->
<g id="edge11" class="edge">
<title>/home/shared/commonplace/20200312231237&#45;org_mode.org&#45;&gt;/home/shared/commonplace/journal/2020&#45;12&#45;13.org</title>
<path fill="none" stroke="#000000" d="M318.0262,-263.7688C345.9204,-259.0683 380.4908,-252.5977 411,-245 422.6308,-242.1036 435.0001,-238.5068 446.6114,-234.8931"/>
<polygon fill="#000000" stroke="#000000" points="317.3641,-260.3307 308.0713,-265.4193 318.5092,-267.2364 317.3641,-260.3307"/>
</g>
<!-- /home/shared/commonplace/emacsconf&#45;2020.org -->
<g id="node8" class="node">
<title>/home/shared/commonplace/emacsconf&#45;2020.org</title>
<g id="a_node8"><a xlink:href="org-protocol://roam-file?file=%2Fhome%2Fshared%2Fcommonplace%2Femacsconf-2020.org" xlink:title="EmacsConf 2020">
<path fill="#ffdab9" stroke="#c9c9c9" d="M321,-236C321,-236 208,-236 208,-236 202,-236 196,-230 196,-224 196,-224 196,-212 196,-212 196,-206 202,-200 208,-200 208,-200 321,-200 321,-200 327,-200 333,-206 333,-212 333,-212 333,-224 333,-224 333,-230 327,-236 321,-236"/>
<text text-anchor="middle" x="264.5" y="-214.3" font-family="sans" font-size="14.00" fill="#111111">EmacsConf 2020</text>
</a>
</g>
</g>
<!-- /home/shared/commonplace/emacsconf&#45;2020.org&#45;&gt;/home/shared/commonplace/journal/2020&#45;12&#45;13.org -->
<g id="edge12" class="edge">
<title>/home/shared/commonplace/emacsconf&#45;2020.org&#45;&gt;/home/shared/commonplace/journal/2020&#45;12&#45;13.org</title>
<path fill="none" stroke="#000000" d="M343.1669,-218C377.4641,-218 416.6352,-218 446.8008,-218"/>
<polygon fill="#000000" stroke="#000000" points="343.166,-214.5001 333.166,-218 343.166,-221.5001 343.166,-214.5001"/>
</g>
<!-- /home/shared/commonplace/chartism.org -->
<g id="node9" class="node">
<title>/home/shared/commonplace/chartism.org</title>
<g id="a_node9"><a xlink:href="org-protocol://roam-file?file=%2Fhome%2Fshared%2Fcommonplace%2Fchartism.org" xlink:title="Chartism">
<path fill="#ffdab9" stroke="#c9c9c9" d="M293,-506C293,-506 236,-506 236,-506 230,-506 224,-500 224,-494 224,-494 224,-482 224,-482 224,-476 230,-470 236,-470 236,-470 293,-470 293,-470 299,-470 305,-476 305,-482 305,-482 305,-494 305,-494 305,-500 299,-506 293,-506"/>
<text text-anchor="middle" x="264.5" y="-484.3" font-family="sans" font-size="14.00" fill="#111111">Chartism</text>
</a>
</g>
</g>
<!-- /home/shared/commonplace/chartism.org&#45;&gt;/home/shared/commonplace/journal/2020&#45;12&#45;10.org -->
<g id="edge3" class="edge">
<title>/home/shared/commonplace/chartism.org&#45;&gt;/home/shared/commonplace/journal/2020&#45;12&#45;10.org</title>
<path fill="none" stroke="#000000" d="M315.365,-492.5531C344.1659,-496.3081 380.4314,-503.0455 411,-515 433.5638,-523.8241 456.6463,-538.8264 473.1315,-550.782"/>
<polygon fill="#000000" stroke="#000000" points="315.4671,-489.0397 305.1163,-491.3005 314.6178,-495.9879 315.4671,-489.0397"/>
</g>
<!-- /home/shared/commonplace/social&#45;coop.org -->
<g id="node10" class="node">
<title>/home/shared/commonplace/social&#45;coop.org</title>
<g id="a_node10"><a xlink:href="org-protocol://roam-file?file=%2Fhome%2Fshared%2Fcommonplace%2Fsocial-coop.org" xlink:title="social.coop">
<path fill="#ffdab9" stroke="#c9c9c9" d="M300.5,-452C300.5,-452 228.5,-452 228.5,-452 222.5,-452 216.5,-446 216.5,-440 216.5,-440 216.5,-428 216.5,-428 216.5,-422 222.5,-416 228.5,-416 228.5,-416 300.5,-416 300.5,-416 306.5,-416 312.5,-422 312.5,-428 312.5,-428 312.5,-440 312.5,-440 312.5,-446 306.5,-452 300.5,-452"/>
<text text-anchor="middle" x="264.5" y="-430.3" font-family="sans" font-size="14.00" fill="#111111">social.coop</text>
</a>
</g>
</g>
<!-- /home/shared/commonplace/social&#45;coop.org&#45;&gt;/home/shared/commonplace/journal/2020&#45;12&#45;10.org -->
<g id="edge6" class="edge">
<title>/home/shared/commonplace/social&#45;coop.org&#45;&gt;/home/shared/commonplace/journal/2020&#45;12&#45;10.org</title>
<path fill="none" stroke="#000000" d="M322.8789,-435.2953C351.1774,-438.1938 384.6525,-445.1454 411,-461 447.2684,-482.8245 474.257,-526.0984 487.4602,-550.7282"/>
<polygon fill="#000000" stroke="#000000" points="322.9781,-431.7906 312.7101,-434.4019 322.3654,-438.7638 322.9781,-431.7906"/>
</g>
<!-- /home/shared/commonplace/weeknotes/2020&#45;50.org -->
<g id="node20" class="node">
<title>/home/shared/commonplace/weeknotes/2020&#45;50.org</title>
<g id="a_node20"><a xlink:href="org-protocol://roam-file?file=%2Fhome%2Fshared%2Fcommonplace%2Fweeknotes%2F2020-50.org" xlink:title="2020&#45;50">
<path fill="#ffdab9" stroke="#c9c9c9" d="M646,-587C646,-587 594,-587 594,-587 588,-587 582,-581 582,-575 582,-575 582,-563 582,-563 582,-557 588,-551 594,-551 594,-551 646,-551 646,-551 652,-551 658,-557 658,-563 658,-563 658,-575 658,-575 658,-581 652,-587 646,-587"/>
<text text-anchor="middle" x="620" y="-565.3" font-family="sans" font-size="14.00" fill="#111111">2020&#45;50</text>
</a>
</g>
</g>
<!-- /home/shared/commonplace/journal/2020&#45;12&#45;10.org&#45;&gt;/home/shared/commonplace/weeknotes/2020&#45;50.org -->
<g id="edge20" class="edge">
<title>/home/shared/commonplace/journal/2020&#45;12&#45;10.org&#45;&gt;/home/shared/commonplace/weeknotes/2020&#45;50.org</title>
<path fill="none" stroke="#000000" d="M556.2081,-569C564.9435,-569 573.7334,-569 581.8776,-569"/>
<polygon fill="#000000" stroke="#000000" points="556.0206,-565.5001 546.0206,-569 556.0205,-572.5001 556.0206,-565.5001"/>
</g>
<!-- /home/shared/commonplace/vps&#45;providers&#45;using&#45;renewable&#45;energy.org -->
<g id="node12" class="node">
<title>/home/shared/commonplace/vps&#45;providers&#45;using&#45;renewable&#45;energy.org</title>
<g id="a_node12"><a xlink:href="org-protocol://roam-file?file=%2Fhome%2Fshared%2Fcommonplace%2Fvps-providers-using-renewable-energy.org" xlink:title="VPS providers using renewable energy">
<path fill="#ffdab9" stroke="#c9c9c9" d="M399,-830C399,-830 130,-830 130,-830 124,-830 118,-824 118,-818 118,-818 118,-806 118,-806 118,-800 124,-794 130,-794 130,-794 399,-794 399,-794 405,-794 411,-800 411,-806 411,-806 411,-818 411,-818 411,-824 405,-830 399,-830"/>
<text text-anchor="middle" x="264.5" y="-808.3" font-family="sans" font-size="14.00" fill="#111111">VPS providers using renewable energy</text>
</a>
</g>
</g>
<!-- /home/shared/commonplace/journal/2020&#45;12&#45;12.org -->
<g id="node14" class="node">
<title>/home/shared/commonplace/journal/2020&#45;12&#45;12.org</title>
<g id="a_node14"><a xlink:href="org-protocol://roam-file?file=%2Fhome%2Fshared%2Fcommonplace%2Fjournal%2F2020-12-12.org" xlink:title="2020&#45;12&#45;12">
<path fill="#ffdab9" stroke="#c9c9c9" d="M534,-776C534,-776 459,-776 459,-776 453,-776 447,-770 447,-764 447,-764 447,-752 447,-752 447,-746 453,-740 459,-740 459,-740 534,-740 534,-740 540,-740 546,-746 546,-752 546,-752 546,-764 546,-764 546,-770 540,-776 534,-776"/>
<text text-anchor="middle" x="496.5" y="-754.3" font-family="sans" font-size="14.00" fill="#111111">2020&#45;12&#45;12</text>
</a>
</g>
</g>
<!-- /home/shared/commonplace/vps&#45;providers&#45;using&#45;renewable&#45;energy.org&#45;&gt;/home/shared/commonplace/journal/2020&#45;12&#45;12.org -->
<g id="edge8" class="edge">
<title>/home/shared/commonplace/vps&#45;providers&#45;using&#45;renewable&#45;energy.org&#45;&gt;/home/shared/commonplace/journal/2020&#45;12&#45;12.org</title>
<path fill="none" stroke="#000000" d="M381.3308,-791.8167C391.3996,-789.6694 401.4008,-787.3905 411,-785 422.6308,-782.1036 435.0001,-778.5068 446.6114,-774.8931"/>
<polygon fill="#000000" stroke="#000000" points="380.3262,-788.4509 371.2518,-793.9194 381.7558,-795.3033 380.3262,-788.4509"/>
</g>
<!-- /home/shared/commonplace/cloudron.org -->
<g id="node13" class="node">
<title>/home/shared/commonplace/cloudron.org</title>
<g id="a_node13"><a xlink:href="org-protocol://roam-file?file=%2Fhome%2Fshared%2Fcommonplace%2Fcloudron.org" xlink:title="Cloudron">
<path fill="#ffdab9" stroke="#c9c9c9" d="M293,-776C293,-776 236,-776 236,-776 230,-776 224,-770 224,-764 224,-764 224,-752 224,-752 224,-746 230,-740 236,-740 236,-740 293,-740 293,-740 299,-740 305,-746 305,-752 305,-752 305,-764 305,-764 305,-770 299,-776 293,-776"/>
<text text-anchor="middle" x="264.5" y="-754.3" font-family="sans" font-size="14.00" fill="#111111">Cloudron</text>
</a>
</g>
</g>
<!-- /home/shared/commonplace/cloudron.org&#45;&gt;/home/shared/commonplace/journal/2020&#45;12&#45;12.org -->
<g id="edge7" class="edge">
<title>/home/shared/commonplace/cloudron.org&#45;&gt;/home/shared/commonplace/journal/2020&#45;12&#45;12.org</title>
<path fill="none" stroke="#000000" d="M315.2924,-758C354.4138,-758 408.1914,-758 446.9881,-758"/>
<polygon fill="#000000" stroke="#000000" points="315.1768,-754.5001 305.1768,-758 315.1768,-761.5001 315.1768,-754.5001"/>
</g>
<!-- /home/shared/commonplace/journal/2020&#45;12&#45;12.org&#45;&gt;/home/shared/commonplace/weeknotes/2020&#45;50.org -->
<g id="edge19" class="edge">
<title>/home/shared/commonplace/journal/2020&#45;12&#45;12.org&#45;&gt;/home/shared/commonplace/weeknotes/2020&#45;50.org</title>
<path fill="none" stroke="#000000" d="M514.0542,-731.1356C539.6056,-692.0328 586.3675,-620.4699 608.1942,-587.0672"/>
<polygon fill="#000000" stroke="#000000" points="510.8819,-729.5921 508.3417,-739.8779 516.7418,-733.4212 510.8819,-729.5921"/>
</g>
<!-- /home/shared/commonplace/yunohost.org -->
<g id="node15" class="node">
<title>/home/shared/commonplace/yunohost.org</title>
<g id="a_node15"><a xlink:href="org-protocol://roam-file?file=%2Fhome%2Fshared%2Fcommonplace%2Fyunohost.org" xlink:title="Yunohost">
<path fill="#ffdab9" stroke="#c9c9c9" d="M70,-159C70,-159 12,-159 12,-159 6,-159 0,-153 0,-147 0,-147 0,-135 0,-135 0,-129 6,-123 12,-123 12,-123 70,-123 70,-123 76,-123 82,-129 82,-135 82,-135 82,-147 82,-147 82,-153 76,-159 70,-159"/>
<text text-anchor="middle" x="41" y="-137.3" font-family="sans" font-size="14.00" fill="#111111">Yunohost</text>
</a>
</g>
</g>
<!-- /home/shared/commonplace/self&#45;hosting&#45;conundrum.org -->
<g id="node16" class="node">
<title>/home/shared/commonplace/self&#45;hosting&#45;conundrum.org</title>
<g id="a_node16"><a xlink:href="org-protocol://roam-file?file=%2Fhome%2Fshared%2Fcommonplace%2Fself-hosting-conundrum.org" xlink:title="Self&#45;hosting conundrum">
<path fill="#ffdab9" stroke="#c9c9c9" d="M346,-182C346,-182 183,-182 183,-182 177,-182 171,-176 171,-170 171,-170 171,-158 171,-158 171,-152 177,-146 183,-146 183,-146 346,-146 346,-146 352,-146 358,-152 358,-158 358,-158 358,-170 358,-170 358,-176 352,-182 346,-182"/>
<text text-anchor="middle" x="264.5" y="-160.3" font-family="sans" font-size="14.00" fill="#111111">Self&#45;hosting conundrum</text>
</a>
</g>
</g>
<!-- /home/shared/commonplace/yunohost.org&#45;&gt;/home/shared/commonplace/self&#45;hosting&#45;conundrum.org -->
<g id="edge9" class="edge">
<title>/home/shared/commonplace/yunohost.org&#45;&gt;/home/shared/commonplace/self&#45;hosting&#45;conundrum.org</title>
<path fill="none" stroke="#000000" d="M92.2339,-146.2724C115.5029,-148.667 143.7843,-151.5774 170.6488,-154.3419"/>
<polygon fill="#000000" stroke="#000000" points="92.5596,-142.7875 82.2538,-145.2454 91.843,-149.7507 92.5596,-142.7875"/>
</g>
<!-- /home/shared/commonplace/yunohost.org&#45;&gt;/home/shared/commonplace/journal/2020&#45;12&#45;13.org -->
<g id="edge15" class="edge">
<title>/home/shared/commonplace/yunohost.org&#45;&gt;/home/shared/commonplace/journal/2020&#45;12&#45;13.org</title>
<path fill="none" stroke="#000000" d="M92.1973,-128.5992C165.7256,-113.3663 304.1328,-94.4164 411,-137 442.5314,-149.5644 469.1208,-179.8925 483.9193,-199.664"/>
<polygon fill="#000000" stroke="#000000" points="91.3132,-125.2089 82.2628,-130.7172 92.7728,-132.0551 91.3132,-125.2089"/>
</g>
<!-- /home/shared/commonplace/self&#45;hosting&#45;conundrum.org&#45;&gt;/home/shared/commonplace/journal/2020&#45;12&#45;13.org -->
<g id="edge13" class="edge">
<title>/home/shared/commonplace/self&#45;hosting&#45;conundrum.org&#45;&gt;/home/shared/commonplace/journal/2020&#45;12&#45;13.org</title>
<path fill="none" stroke="#000000" d="M368.2156,-181.4646C382.6464,-184.3743 397.2365,-187.5724 411,-191 422.6308,-193.8964 435.0001,-197.4932 446.6114,-201.1069"/>
<polygon fill="#000000" stroke="#000000" points="368.7516,-178.0029 358.2626,-179.4969 367.394,-184.87 368.7516,-178.0029"/>
</g>
<!-- /home/shared/commonplace/post&#45;open&#45;source.org -->
<g id="node17" class="node">
<title>/home/shared/commonplace/post&#45;open&#45;source.org</title>
<g id="a_node17"><a xlink:href="org-protocol://roam-file?file=%2Fhome%2Fshared%2Fcommonplace%2Fpost-open-source.org" xlink:title="Post&#45;Open Source">
<path fill="#ffdab9" stroke="#c9c9c9" d="M324.5,-90C324.5,-90 204.5,-90 204.5,-90 198.5,-90 192.5,-84 192.5,-78 192.5,-78 192.5,-66 192.5,-66 192.5,-60 198.5,-54 204.5,-54 204.5,-54 324.5,-54 324.5,-54 330.5,-54 336.5,-60 336.5,-66 336.5,-66 336.5,-78 336.5,-78 336.5,-84 330.5,-90 324.5,-90"/>
<text text-anchor="middle" x="264.5" y="-68.3" font-family="sans" font-size="14.00" fill="#111111">Post&#45;Open Source</text>
</a>
</g>
</g>
<!-- /home/shared/commonplace/post&#45;open&#45;source.org&#45;&gt;/home/shared/commonplace/journal/2020&#45;12&#45;13.org -->
<g id="edge16" class="edge">
<title>/home/shared/commonplace/post&#45;open&#45;source.org&#45;&gt;/home/shared/commonplace/journal/2020&#45;12&#45;13.org</title>
<path fill="none" stroke="#000000" d="M346.7129,-79.3909C368.8421,-84.1107 391.9125,-91.7339 411,-104 448.2545,-127.9407 475.2125,-174.1372 488.059,-199.7614"/>
<polygon fill="#000000" stroke="#000000" points="347.115,-75.9033 336.6293,-77.4204 345.7724,-82.7734 347.115,-75.9033"/>
</g>
<!-- /home/shared/commonplace/libraries.org -->
<g id="node18" class="node">
<title>/home/shared/commonplace/libraries.org</title>
<g id="a_node18"><a xlink:href="org-protocol://roam-file?file=%2Fhome%2Fshared%2Fcommonplace%2Flibraries.org" xlink:title="Libraries">
<path fill="#ffdab9" stroke="#c9c9c9" d="M292,-36C292,-36 237,-36 237,-36 231,-36 225,-30 225,-24 225,-24 225,-12 225,-12 225,-6 231,0 237,0 237,0 292,0 292,0 298,0 304,-6 304,-12 304,-12 304,-24 304,-24 304,-30 298,-36 292,-36"/>
<text text-anchor="middle" x="264.5" y="-14.3" font-family="sans" font-size="14.00" fill="#111111">Libraries</text>
</a>
</g>
</g>
<!-- /home/shared/commonplace/libraries.org&#45;&gt;/home/shared/commonplace/journal/2020&#45;12&#45;13.org -->
<g id="edge14" class="edge">
<title>/home/shared/commonplace/libraries.org&#45;&gt;/home/shared/commonplace/journal/2020&#45;12&#45;13.org</title>
<path fill="none" stroke="#000000" d="M314.1647,-16.336C344.8432,-17.7469 383.469,-24.2 411,-45 463.1258,-84.3816 485.4496,-164.1451 493.1287,-199.9213"/>
<polygon fill="#000000" stroke="#000000" points="314.1923,-12.8354 304.0929,-16.0374 313.9848,-19.8323 314.1923,-12.8354"/>
</g>
<!-- /home/shared/commonplace/journal/2020&#45;12&#45;13.org&#45;&gt;/home/shared/commonplace/weeknotes/2020&#45;50.org -->
<g id="edge18" class="edge">
<title>/home/shared/commonplace/journal/2020&#45;12&#45;13.org&#45;&gt;/home/shared/commonplace/weeknotes/2020&#45;50.org</title>
<path fill="none" stroke="#000000" d="M506.4153,-246.1804C530.8406,-315.5996 593.3878,-493.3655 613.598,-550.8048"/>
<polygon fill="#000000" stroke="#000000" points="509.5867,-244.6485 502.966,-236.3771 502.9835,-246.9719 509.5867,-244.6485"/>
</g>
</g>
</svg>
